{
  "project_info": {
    "project_number": "957469819315",
    "project_id": "carlesexample-f2c6f",
    "storage_bucket": "carlesexample-f2c6f.appspot.com"
  },
  "client": [
    {
      "client_info": {
        "mobilesdk_app_id": "1:957469819315:android:997c270339b1b235154bc6",
        "android_client_info": {
          "package_name": "com.example.firebaseexample"
        }
      },
      "oauth_client": [
        {
          "client_id": "957469819315-jmauhabhdegm6ssm51slfc13lljc1fdf.apps.googleusercontent.com",
          "client_type": 3
        }
      ],
      "api_key": [
        {
          "current_key": "AIzaSyCgoSSF8JlD0ll9K8dZ0dvljmCsE2iw_zA"
        }
      ],
      "services": {
        "appinvite_service": {
          "other_platform_oauth_client": [
            {
              "client_id": "957469819315-jmauhabhdegm6ssm51slfc13lljc1fdf.apps.googleusercontent.com",
              "client_type": 3
            }
          ]
        }
      }
    }
  ],
  "configuration_version": "1"
}